<?xml version="1.0" standalone="no"?>
<!DOCTYPE svg PUBLIC "-//W3C//DTD SVG 1.1//EN" "http://www.w3.org/Graphics/SVG/1.1/DTD/svg11.dtd">
<svg xmlns="http://www.w3.org/2000/svg">
<metadata>Generated by Fontastic.me</metadata>
<defs>
<font id="n" horiz-adv-x="512">
<font-face font-family="n" units-per-em="512" ascent="480" descent="-32"/>
<missing-glyph horiz-adv-x="512" />

<glyph unicode="&#97;" d="M480 469l-448 0c-18 0-32-14-32-32l0-277c0-18 14-32 32-32l32 0 0-100 100 100 316 0c18 0 32 14 32 32l0 277c0 18-14 32-32 32z m11-309c0-6-5-11-11-11l-324 0-71-70 0 70-53 0c-6 0-11 5-11 11l0 277c0 6 5 11 11 11l448 0c6 0 11-5 11-11z m-299 139c0-12-10-22-21-22-12 0-22 10-22 22 0 11 10 21 22 21 11 0 21-10 21-21z m171 0c0-12-10-22-22-22-11 0-21 10-21 22 0 11 10 21 21 21 12 0 22-10 22-21z m-86 0c0-12-9-22-21-22-12 0-21 10-21 22 0 11 9 21 21 21 12 0 21-10 21-21z"/>
<glyph unicode="&#98;" d="M492 217l-83 40c20 12 33 36 33 63 0 40-28 72-62 72-12 0-23-4-32-11 6-14 9-29 9-46 0-24-7-48-20-67 4-5 9-9 15-12l0 0 53-25c15-8 25-24 25-41l0-70 57 0c7 0 14 7 14 16l0 66c0 7-4 13-9 15z m-330 40c4 3 8 6 12 10-13 19-21 43-21 68 0 17 4 33 10 47-10 6-20 10-31 10-34 0-62-32-62-72 0-28 14-52 34-64l-84-39c-5-2-9-8-9-15l0-66c0-9 7-16 14-16l55 0 0 70c0 17 10 34 26 41z m232-49l-72 34-31 15c14 8 25 21 32 37 5 12 9 26 9 41 0 9-2 17-4 24-9 38-38 65-73 65-34 0-63-26-73-63-2-8-3-17-3-26 0-16 3-31 10-44 7-14 18-27 31-35l-29-13-75-35c-6-3-10-10-10-18l0-82c0-11 7-20 17-20l264 0c10 0 18 9 18 20l0 82c0 8-5 15-11 18z"/>
</font></defs></svg>
